TO 414 Group Project 1
…
Lead Time and Cancellations

#How many cancelations per days of lead time
group_by(hotel_data, is_canceled, lead_time) %>%
  summarize(count = n())

## # A tibble: 887 x 3
## # Groups:   is_canceled [2]
##    is_canceled lead_time count
##    <fct>           <int> <int>
##  1 0                   0  5915
##  2 0                   1  3139
##  3 0                   2  1856
##  4 0                   3  1634
##  5 0                   4  1539
##  6 0                   5  1359
##  7 0                   6  1243
##  8 0                   7  1159
##  9 0                   8   915
## 10 0                   9   773
## #  with 877 more rows
…
